<job id="8314583" owner="mhofmann@redhat.com" result="Warn" status="Aborted" retention_tag="scratch">
  <whiteboard>abortwarn</whiteboard>
  <recipeSet priority="Normal" response="ack" id="12377065">
    <recipe id="14620842" job_id="8314583" recipe_set_id="12377065" whiteboard="" role="None" kickstart_url="http://beaker.engineering.redhat.com/kickstart/12561639" ks_meta="" kernel_options="" kernel_options_post="" start_time="2023-09-15 11:05:19" finish_time="2023-09-15 11:23:22" duration="0:18:03" result="Warn" status="Aborted" distro="Fedora-Rawhide-20230914.n.0" arch="x86_64" family="Fedorarawhide" variant="Server" system="kvm-04-guest01.lab.eng.rdu2.redhat.com">
      <autopick random="false"/>
      <watchdog/>
      <installation install_started="2023-09-15 11:06:42" install_finished="2023-09-15 11:15:57" postinstall_finished="2023-09-15 11:21:52"/>
      <packages/>
      <ks_appends/>
      <roles>
        <role value="None">
          <system value="kvm-04-guest01.lab.eng.rdu2.redhat.com"/>
        </role>
      </roles>
      <repos/>
      <distroRequires>
        <and>
          <distro_family op="=" value="Fedorarawhide"/>
          <distro_variant op="=" value="Server"/>
        </and>
      </distroRequires>
      <hostRequires>
          <hostname op="like" value="kvm-%-guest%.lab.eng.rdu2.redhat.com"/>
      <system_type value="Machine"/></hostRequires>
      <partitions/>
      <logs>
        <log href="https://beaker.engineering.redhat.com/recipes/14620842/logs/console.log" name="console.log"/>
        <log href="https://beaker.engineering.redhat.com/recipes/14620842/logs/systemd_journal.log" name="systemd_journal.log"/>
        <log href="https://beaker.engineering.redhat.com/recipes/14620842/logs/anaconda.log" name="anaconda.log"/>
        <log href="https://beaker.engineering.redhat.com/recipes/14620842/logs/sys.log" name="sys.log"/>
        <log href="https://beaker.engineering.redhat.com/recipes/14620842/logs/storage.log" name="storage.log"/>
        <log href="https://beaker.engineering.redhat.com/recipes/14620842/logs/program.log" name="program.log"/>
        <log href="https://beaker.engineering.redhat.com/recipes/14620842/logs/ks.cfg" name="ks.cfg"/>
        <log href="https://beaker.engineering.redhat.com/recipes/14620842/logs/packaging.log" name="packaging.log"/>
        <log href="https://beaker.engineering.redhat.com/recipes/14620842/logs/lvm.log" name="lvm.log"/>
        <log href="https://beaker.engineering.redhat.com/recipes/14620842/logs/hawkey.log" name="hawkey.log"/>
        <log href="https://beaker.engineering.redhat.com/recipes/14620842/logs/boot.log" name="boot.log"/>
      </logs>
      <task name="abortwarn" role="None" id="166230778" result="Warn" status="Aborted" start_time="2023-09-15 11:23:17" finish_time="2023-09-15 11:23:20" duration="0:00:03">
        <fetch url="https://gitlab.com/api/v4/projects/cki-project%2fdocumentation/repository/archive.zip#content/docs/test-maintainers/status-meaning/restraint/abortwarn"/>
        <roles>
          <role value="None">
            <system value="kvm-04-guest01.lab.eng.rdu2.redhat.com"/>
          </role>
        </roles>
        <logs>
          <log href="https://beaker.engineering.redhat.com/recipes/14620842/tasks/166230778/logs/taskout.log" name="taskout.log"/>
          <log href="https://beaker.engineering.redhat.com/recipes/14620842/tasks/166230778/logs/harness.log" name="harness.log"/>
        </logs>
        <results>
          <result path="/" start_time="2023-09-15 11:23:19" score="None" result="Warn" id="776595690">None<logs><log href="https://beaker.engineering.redhat.com/recipes/14620842/tasks/166230778/results/776595690/logs/dmesg.log" name="dmesg.log"/><log href="https://beaker.engineering.redhat.com/recipes/14620842/tasks/166230778/results/776595690/logs/avc.log" name="avc.log"/></logs></result>
          <result path="/" start_time="2023-09-15 11:23:20" score="0" result="Warn" id="776595697">None</result>
        </results>
      </task>
      <task name="pass" role="None" id="166230779" result="Warn" status="Aborted">
        <fetch url="https://gitlab.com/api/v4/projects/cki-project%2fdocumentation/repository/archive.zip#content/docs/test-maintainers/status-meaning/restraint/pass"/>
        <roles>
          <role value="None">
            <system value="kvm-04-guest01.lab.eng.rdu2.redhat.com"/>
          </role>
        </roles>
        <logs>
          <log href="https://beaker.engineering.redhat.com/recipes/14620842/tasks/166230779/logs/harness.log" name="harness.log"/>
        </logs>
        <results>
          <result path="/" start_time="2023-09-15 11:23:20" score="0" result="Warn" id="776595698">None</result>
        </results>
      </task>
    </recipe>
  </recipeSet>
</job>
