<?xml version="1.0"?>
<job>
  <recipeSet>
    <recipe id="1" status="Aborted" result="WARN" checkpoint_file="checkpoint_176236.conf">
      <task name="abortwarn" keepchanges="" id="1" status="Aborted" result="WARN" start_time="2023-09-15T07:06:53-0400" end_time="2023-09-15T07:06:54-0400" duration="01">
        <logs>
          <log path="recipes/1/tasks/1/logs/harness.log" filename="harness.log"/>
          <log path="recipes/1/tasks/1/logs/taskout.log" filename="taskout.log"/>
        </logs>
        <fetch url="https://gitlab.com/api/v4/projects/cki-project%2fdocumentation/repository/archive.zip#content/docs/test-maintainers/status-meaning/restraint/abortwarn"/>
        <params>
          <param name="JOB_MEMBERS" value="localhost"/>
          <param name="RECIPE_MEMBERS" value="localhost"/>
        </params>
        <results>
          <result id="1694776015" path="/" result="WARN">
            <logs>
              <log path="recipes/1/tasks/1/results/1694776015/logs/avc.log" filename="avc.log"/>
            </logs>
          </result>
        </results>
      </task>
      <task name="pass" keepchanges="" id="2" status="Aborted" result="None" end_time="2023-09-15T07:06:54-0400">
        <logs/>
        <fetch url="https://gitlab.com/api/v4/projects/cki-project%2fdocumentation/repository/archive.zip#content/docs/test-maintainers/status-meaning/restraint/pass"/>
        <params>
          <param name="JOB_MEMBERS" value="localhost"/>
          <param name="RECIPE_MEMBERS" value="localhost"/>
        </params>
      </task>
    </recipe>
  </recipeSet>
</job>
